…
**Now run prop.test for each of the cities in your dataset, and extract
both the proportion of unsolved homicides and the confidence interval
for each. Do this within a “tidy” pipeline, making use of `purrr::map`,
`purrr::map2`, list columns and unnest as necessary to create a tidy
dataframe with estimated proportions and CIs for each city.**

``` r
city_prop = data_prop |>
  mutate(prop = map2(n_unsolved, n_cases, ~broom::tidy(prop.test(.x,.y)))) |>
  unnest(prop) |>
  select(city, city_state, n_cases, n_unsolved, estimate,conf.low,conf.high)
city_prop
```

    ## # A tibble: 51 × 7
    ## # Groups:   city [50]
    ##    city        city_state      n_cases n_unsolved estimate conf.low conf.high
    ##    <chr>       <chr>             <int>      <int>    <dbl>    <dbl>     <dbl>
    ##  1 Albuquerque Albuquerque, NM     378        146    0.386    0.337     0.438
    ##  2 Atlanta     Atlanta, GA         973        373    0.383    0.353     0.415
    ##  3 Baltimore   Baltimore, MD      2827       1825    0.646    0.628     0.663
    ##  4 Baton Rouge Baton Rouge, LA     424        196    0.462    0.414     0.511
    ##  5 Birmingham  Birmingham, AL      800        347    0.434    0.399     0.469
    ##  6 Boston      Boston, MA          614        310    0.505    0.465     0.545
    ##  7 Buffalo     Buffalo, NY         521        319    0.612    0.569     0.654
    ##  8 Charlotte   Charlotte, NC       687        206    0.300    0.266     0.336
    ##  9 Chicago     Chicago, IL        5535       4073    0.736    0.724     0.747
    ## 10 Cincinnati  Cincinnati, OH      694        309    0.445    0.408     0.483
    ## # ℹ 41 more rows
…
